%YAML 1.1
---
'86_83_79_108':
- VoidLeech
'131_211_114_187':
- sfk1503
'80_56_10_161':
- Art143
'145_107_124_114':
- Art143
'145_107_130_249':
- Screenitz
'95_96_208_176':
- suppergerrie2
'77_161_194_164':
- KayoNar
'82_217_99_146':
- r2dvos
'145_107_124_93':
- Art143
'145_107_158_81':
- TheKraai
'145_136_150_170':
- r2dvos
'82_176_130_243':
- DragonWolf2b
'85_150_68_237':
- Daannado
'143_176_174_36':
- nout_h
'145_90_99_79':
- Art143
'145_107_143_58':
- oekk
'131_211_114_93':
- rutgerdj
'77_174_12_10':
- TheKraai
'31_151_217_119':
- Sjoeman1
'213_126_218_106':
- suppergerrie2
'77_162_177_151':
- ipsalo
'213_247_94_192':
- rutgerdj
'145_107_158_101':
- TheKraai
'77_162_162_11':
- RatKingXii
