{"sets": {"markers": {"hide": false,"circles": {}
,"areas": {}
,"label": "Markers","markers": {"_spawn_world_nether": {"markup": false,"x": 0.00,"icon": "world","y": 66.00,"dim": "16x16","z": 0.00,"label": "Spawn"}
}
,"lines": {}
,"layerprio": 0}
}
,"timestamp": 1652873677604}
